STATS 220 Lab 8
…
  group_by(date = date(datetime), location) %>%
  summarise(max_aqi = max(aqi, na.rm = TRUE)) %>%
  ungroup() %>%
  mutate(
    aqi_cat = factor(aqi_cat(max_aqi),
      levels = c(
        "Good", "Moderate", "Unhealthy for Sensitive",
        "Unhealthy", "Very Unhealthy", "Hazardous"
      )
    ),
    month = month(date, label = TRUE),
    mday = day(date)
  ))

#> # A tibble: 365 x 6
#>    date       location     max_aqi aqi_cat  month  mday
#>    <date>     <chr>          <dbl> <fct>    <ord> <int>
#>  1 2019-01-01 queen_street      36 Good     Jan       1
#>  2 2019-01-02 queen_street      32 Good     Jan       2
#>  3 2019-01-03 queen_street      35 Good     Jan       3
#>  4 2019-01-04 queen_street      54 Moderate Jan       4
#>  5 2019-01-05 queen_street      54 Moderate Jan       5
#>  6 2019-01-06 queen_street      34 Good     Jan       6
#>  7 2019-01-07 queen_street      31 Good     Jan       7
#>  8 2019-01-08 queen_street      32 Good     Jan       8
#>  9 2019-01-09 queen_street      37 Good     Jan       9
#> 10 2019-01-10 queen_street      61 Moderate Jan      10
#> # ... with 355 more rows
…
